Tarea 2
…
## Rows: 200 Columns: 9

## -- Column specification --------------------------------------------------------
## Delimiter: ","
## chr (2): name, gender_age
## dbl (7): id, test_number, week1, week2, week3, week4, week5

## 
## i Use `spec()` to retrieve the full column specification for this data.
## i Specify the column types or set `show_col_types = FALSE` to quiet this message.

(csv_0)

## # A tibble: 200 x 9
##    name           id gender_age test_number week1 week2 week3 week4 week5
##    <chr>       <dbl> <chr>            <dbl> <dbl> <dbl> <dbl> <dbl> <dbl>
##  1 Jacob         108 m_20                 1     8     5     7     5     6
##  2 Jacob         108 m_20                 2     2     2     4     0     3
##  3 Michael       490 m_19                 1    10     0     5     4     0
##  4 Michael       490 m_19                 2     9    10     8    10     9
##  5 Matthew       424 m_18                 1     6     0     0     1    10
##  6 Matthew       424 m_18                 2     3     4     2     5     8
##  7 Joshua        734 m_17                 1    10     2     2     0     6
##  8 Joshua        734 m_17                 2    10     0     6     8     9
##  9 Christopher   928 m_20                 1     5     2     0     0     0
## 10 Christopher   928 m_20                 2     9     9     3    10     4
## # ... with 190 more rows

# una columna 2 variables en 1

csv_1= csv_0 %>%
  separate(col  =  gender_age, into =  c("gender", "age"), sep  =  "_", convert = TRUE)

csv_1

## # A tibble: 200 x 10
##    name           id gender   age test_number week1 week2 week3 week4 week5
##    <chr>       <dbl> <chr>  <int>       <dbl> <dbl> <dbl> <dbl> <dbl> <dbl>
##  1 Jacob         108 m         20           1     8     5     7     5     6
##  2 Jacob         108 m         20           2     2     2     4     0     3
##  3 Michael       490 m         19           1    10     0     5     4     0
##  4 Michael       490 m         19           2     9    10     8    10     9
##  5 Matthew       424 m         18           1     6     0     0     1    10
##  6 Matthew       424 m         18           2     3     4     2     5     8
##  7 Joshua        734 m         17           1    10     2     2     0     6
##  8 Joshua        734 m         17           2    10     0     6     8     9
##  9 Christopher   928 m         20           1     5     2     0     0     0
## 10 Christopher   928 m         20           2     9     9     3    10     4
## # ... with 190 more rows

# los nombres de algunas columnas de la tabla no son realmente variables, sino valores de una variable

colnames(csv_1) = c("name","id", "gender", "age", "ntest", "1", "2", "3", "4", "5")

(csv_2 = csv_1 %>%
  pivot_longer("1":"5", names_to = "semana"))

## # A tibble: 1,000 x 7
##    name     id gender   age ntest semana value
##    <chr> <dbl> <chr>  <int> <dbl> <chr>  <dbl>
##  1 Jacob   108 m         20     1 1          8
##  2 Jacob   108 m         20     1 2          5
##  3 Jacob   108 m         20     1 3          7
##  4 Jacob   108 m         20     1 4          5
##  5 Jacob   108 m         20     1 5          6
##  6 Jacob   108 m         20     2 1          2
##  7 Jacob   108 m         20     2 2          2
##  8 Jacob   108 m         20     2 3          4
##  9 Jacob   108 m         20     2 4          0
## 10 Jacob   108 m         20     2 5          3
## # ... with 990 more rows

# una observacin est repartida en varias filas de la tabla (test_number)

csv_3 = csv_2 %>%
  pivot_wider(names_from = ntest, values_from = value )

colnames(csv_3) = c("name","id", "gender", "age", "semana", "test1", "test2")

csv_3

## # A tibble: 500 x 7
##    name       id gender   age semana test1 test2
##    <chr>   <dbl> <chr>  <int> <chr>  <dbl> <dbl>
##  1 Jacob     108 m         20 1          8     2
##  2 Jacob     108 m         20 2          5     2
##  3 Jacob     108 m         20 3          7     4
##  4 Jacob     108 m         20 4          5     0
##  5 Jacob     108 m         20 5          6     3
##  6 Michael   490 m         19 1         10     9
##  7 Michael   490 m         19 2          0    10
##  8 Michael   490 m         19 3          5     8
##  9 Michael   490 m         19 4          4    10
## 10 Michael   490 m         19 5          0     9
## # ... with 490 more rows
…
#'Menor calidad' implica que es mas cara ya que cuanto mejor es el corte del diamante menos quilates tiene. 

Haz el ejercicio 4 de la Seccin 12.6.1 de R4DS. Aprovecha el cdigo previo de esa seccin para trabajar con datos limpios!

Enunciado: For each country, year, and sex compute the total number of cases of TB. Make an informative visualisation of the data.

## Warning: Expected 3 pieces. Missing pieces filled with `NA` in 2580 rows [243,
## 244, 679, 680, 681, 682, 683, 684, 685, 686, 687, 688, 689, 690, 691, 692, 903,
## 904, 905, 906, ...].

(who5%>%
  select(country, year, sex, cases))

## # A tibble: 76,046 x 4
##    country      year sex   cases
##    <chr>       <int> <chr> <int>
##  1 Afghanistan  1997 m         0
##  2 Afghanistan  1997 m        10
##  3 Afghanistan  1997 m         6
##  4 Afghanistan  1997 m         3
##  5 Afghanistan  1997 m         5
##  6 Afghanistan  1997 m         2
##  7 Afghanistan  1997 m         0
##  8 Afghanistan  1997 f         5
##  9 Afghanistan  1997 f        38
## 10 Afghanistan  1997 f        36
## # ... with 76,036 more rows
…
